1987,134
2016,182
2012,197
2020,189
1972,154
1988,153
2019,200
2017,215
1977,99
1971,94
2014,234
1984,130
1982,95
2013,193
2005,189
2000,179
1981,97
1978,97
1974,114
2002,184
2009,201
2018,206
1995,199
2006,197
1976,99
2004,154
1989,196
2011,209
1992,214
2008,216
1999,134
1994,213
1997,203
1973,125
2007,196
1996,204
1983,112
1980,104
1986,151
1985,130
1979,107
2015,203
1998,164
1993,217
2001,122
2010,217
1990,183
1991,212
2003,184
1975,111
1970,33
